[
    {
        "id": 1,
        "title": "Betconnections - 27th group",
        "image": "images/blog/blog-01.jpg",
        "text": "Irin Pervin",
        "largeImage": "images/blog/blog-01.jpg",
        "author": ["Irin Pervin"],
        "date": "10 Dec 2020",
        "view": "70 views",
        "categories": ["Development", "Company", "Marketing"],
        "excerpt": "We have always known the power of digital we've.",
        "body":  ["<p>Betconnections - 27th group</p>"],
        "tags": ["Corporate", "Agency", "Creative", "Design"]
    },
    {
        "id": 2,
        "title": "Betconnections - Evolution",
        "image": "images/blog/blog-02.jpg",
        "text": "Fatima Asrafy",
        "largeImage": "images/blog/blog-02.jpg",
        "author": ["Fatima Asrafy"],
        "date": "30 Nov 2020",
        "view": "70 views",
        "categories": ["UX Design", "Company"],
        "excerpt": "We have always known the power of digital we've.",
        "body":  ["<p>Betconnections - Evolution</p>"],
        "tags": ["Minimal", "Company", "Development", "Design"]
    },
    {
        "id": 3,
        "title": "Betconnections - Beter",
        "image": "images/blog/blog-03.jpg",
        "text": "John Dou",
        "largeImage": "images/blog/blog-03.jpg",
        "author": ["John Dou"],
        "date": "12 Oct 2020",
        "view": "70 views",
        "categories": ["Development", "UX Design", "Business", "Company"],
        "excerpt": "We have always known the power of digital we've.",
        "body":  ["<p>Betconnections - Beter</p>"],
        "tags": ["App Landing", "Startup", "Development", "Design"]
    }
]